27 18 0

0 1 0 1
1 2 6 5

0 1 0 1
5 6 13 14

0 1 0 1
2 3 7 6

0 1 0 1
6 7 12 13

0 0.5 0 1
3 0 8 7

0 0.5 0 1
7 8 11 12

0 1 0 1
0 22 9 8

0 1 0 1
8 9 10 11

0 1 0 1
20 21 22 0

0 1 0 1
19 20 0 18

0 1 0 1
18 0 4 17

0 1 0 1
17 4 15 16

0 0.5 0 1
0 1 5 4

0 0.5 0 1
4 5 14 15

0 1 0 1
23 24 2 1

0 1 0 1
24 25 3 2

0 0.5 0 1
25 26 0 3

0 0.5 0 1
26 23 1 0