21 12 0



0 1 0 1
1 13 8 11




0 1 0 1
13 2 12 8




0 1 0 1
8 12 3 14




0 1 0 1
11 8 14 0




0 1 0 1
0 14 9 15




0 1 0 1
14 3 16 9




0 1 0 1
9 16 4 17




0 1 0 1
15 9 17 5




0 1 0 1
7 18 10 20




0 1 0 1
18 0 15 10




0 1 0 1
10 15 5 19




0 1 0 1
20 10 19 6
