
 
   5.0000    2.0000
   -1.6667   -0.3333
         0   -1.0000
         0         0


    5.0000    1.0000
   -1.0282   -0.0368
         0   -1.0000
         0         0
  

  5.0000         0
   -1.0013    0.0000
         0   -1.0000
         0         0


    5.0000   -1.0000
    1.0282   -0.0368
         0    1.0000
         0         0


    5.0000   -2.0000
    1.6667   -0.3333
         0    1.0000
         0         0


    3.4722    1.6667
   -1.3888   -0.3333
    0.4996   -0.7035
         0         0


    3.9718    0.9632
    0         0
    0         0
    0         0


    3.9987    0.0000
    0         0
    0         0
    0         0

    3.9718   -0.9632
    0         0
    0         0
    0         0


    3.4722   -1.6667
    1.3888   -0.3333
    0.4996    0.7035
         0         0


    2.2222    1.3333
   -1.1111   -0.3333
    0.9544   -0.4043
         0         0


    3.1766    0.9290
    0         0
    0         0
    0         0


    3.0000         0
         0         0
         0         0
         0         0


    3.1766   -0.9290
         0         0
         0         0
         0         0


    2.2222   -1.3333
    1.1111   -0.3333
    0.9544    0.4043
         0         0


    1.2500    1.0000
   -0.8334   -0.3333
    0.5280   -0.0555
         0         0


    2.3060    0.8890
       0         0
    0         0
    0         0


    2.4217    0.3441
   -0.4609    0.1075
   -0.0578   -0.2725
         0         0


    1.2500   -1.0000
    0.8334   -0.3333
    0.5280    0.0555
         0         0


    2.3060   -0.8890
    0         0
    0         0
    0         0


    2.4217   -0.3441
    0.4609    0.1075
   -0.0578    0.2725
         0         0


    0.5556    0.6667
   -0.5556   -0.3333
    0.6312    0.0346
         0         0


    1.8179    0.7359
    0         0
    0         0
    0         0


    1.8835    0.3492
   -0.4026   -0.0897
   -0.0328   -0.1933
         0         0


    0.5556   -0.6667
    0.5556   -0.3333
    0.6312   -0.0346
         0         0


    1.8179   -0.7359
    0         0
    0         0
    0         0


    1.8835   -0.3492
    0.4026   -0.0897
   -0.0328    0.1933
         0         0


    0.1389    0.3333
   -0.2778   -0.3333
    0.5454    0.0557
         0         0


    1.2297    0.4447
    0         0
    0         0
    0         0


    1.5085    0.1844
   -0.5000   -0.4000
    0.1631   -0.1434
         0         0


    0.1389   -0.3333
    0.2778   -0.3333
    0.5454   -0.0557
         0         0


    1.2297   -0.4447
    0         0
    0         0
    0         0


    1.5085   -0.1844
    0.5000   -0.4000
    0.1631    0.1434
         0         0


         0         0
         0   -0.3333
    0.5208         0
         0         0


    1.0416         0
    0         0
    0         0
    0         0


    1.3000         0
         0   -0.1000
    0.2292         0
         0         0