<axl>
<mspline type="InitialMesh">
<vertexnumber> 4</vertexnumber>

<cell>
0 1 0 1
0 1 2 3
</cell>


<points>
-1 1 0
2 -4 0
0 1 0
0 0 0

1 1 0
2 4 0
0 1 0
0 0 0

1 2 0
2 4 0
0 1 0
0 0 0

-1 2 0
2 -4 0
0 1 0
0 0 0
</points>

</mspline>
</axl>