27 16 0



0 1 0 1
0 5 6 1


0 1 0 1
1 6 7 2


0 1 0 1
2 7 8 3


0 1 0 1
3 8 9 4



0 1 0 1
5 10 11 6



0 1 0 1
6 11 12 7



0 1 0 1
7 12 13 8



0 1 0 1
8 13 14 9



0 1 0 1
10 15 16 11



0 1 0 1
11 16 17 12



0 1 0 1
12 18 19 13



0 1 0 1
13 19 20 14



0 1 0 1
15 21 22 16



0 1 0 1
16 22 23 17



0 1 0 1
18 24 25 19



0 1 0 1
19 25 26 20



