0 0 
0 0 
0 0 
0 0 


0 -1 
0.5 0 
0 0.5 
0 0 


1 -1 
0.5 0 
0 0.5 
0 0 


1 0 
0.5 0
0 0.5 
0 0 


1 1 
0.5 0 
0 0.5 
0 0 


0 1 
0.5 0
0 0.5 
0 0 


-1 1 
0.5 0 
0 0.5 
0 0 


-1 0 
0.5 0 
0 0.5 
0 0 


0.3536 -0.3536
1.0607 -0.3536
-0.3536 1.0607
-0.3536 0.3536


0.3536 0.3536
1.0607 0.3536
0.3536 1.0607
0.3536 0.3536


-0.3536 0.3536 
1.0607 -0.3536 
-0.3536 1.0607
0.3536 -0.3536


0   -0.2500         
0.5000         0         
0    1.0000         
-1.0000         0     


1 -0.5 
0.5 0 
0 0.5 
0 0 


0.5 -1 
0.5 0 
0 0.5 
0 0 


0.25 0
1 0
0 0.5
0 1


0 0.25
0.5 0
0 1
1 0


1 0.5 
0.5 0 
0 0.5 
0 0 


0.5 1 
0.5 0 
0 0.5 
0 0 


-0.25 0
1 0
0 0.5
0 -1


-0.5 1 
0.5 0 
0 0.5 
0 0 


-1 0.5 
0.5 0 
0 0.5 
0 0 
