0.828516 
1.25864 
2.24456 
4.81008 
6.30012 
14.438 
4.70843 
2.67805 
1.8761 
1.61908 
4.51385 
3.2067 
6.63398 
-5.14222 
-2.85918 
-4.01795 
0 
0 
-1.50752 
-0.982385 
0 
0 
-11.5405 
36.4099 
1.87984 
-1.75481 
4.55561 
-3.26502 
6.65927 
5.11693 
-2.8445 
4.52712 
0.824135 
-0.774185 
2.18277 
-3.31733 
6.31026 
-14.4167 
3.86119 
0.489461 
0 
0 
-11.6205 
-36.8865 
0 
0 
-1.2143 
-0.418059 
-0.61968 
-0.124111 
-0.568337 
0.389344 
3.3946 
-4.93385 
1.58427 
-3.63827 
0 
0 
-9.542 
9.93893 
0 
-19.3484 
0 
-4.68973 
0 
-19.4586 
0 
12.2881 
0 
0 
0 
28.1406 
0 
0 
0.203445 
0.169923 
0 
0 
0 
-15.423 
0 
0 
0 
15.6928 
0 
18.1558 
0 
5.99586 
0 
21.9326 
0 
-5.35316 
3.35829 
5.81721 
1.65436 
4.58345 
0 
0 
0 
-33.5121 
0 
0 
-9.54015 
-11.2932 
0 
0 
0.0116221 
-0.0499135 
0 
0 
0.923025 
0.417683 
0 
0 
0.977751 
-0.359353 
0 
0 
-0.00941483 
0.520033 
0 
0 
-0.00139341 
0.225931 
2.80417 
0.219997 
-5.25282 
0.165649 
0 
0 
-0.956961 
1.30183 
2.34563 
0.640346 
4.86795 
0.232878 
0 
0 
-0.444675 
-0.411858 

